wokwi.vcd
$version Generated by Wokwi.com $end
$date Sat, 14 Mar 2026 13:39:21 GMT $end
$timescale 1ns $end
$scope module logic $end
$var wire 1 ! SYNC $end
$var wire 1 " IN_S $end
$var wire 1 # IN_A $end
$var wire 1 $ IN_B $end
$var wire 1 % ACK_A $end
$var wire 1 & ACK_B $end
$var wire 1 ' ACK_AGG $end
$var wire 1 ( ACK_S $end
$upscope $end
$enddefinitions $end
#0
0!
#0
0"
#0
0#
#0
0$
#0
0%
#0
0&
#0
0'
#0
0(
#500000
1#
#714286
1$
#1000000
0#
#1428571
0$
#1500000
1#
#2000000
0#
#2142857
1$
#2500000
1#
#2857143
0$
#3000000
0#
#3500000
1#
#3571429
1$
#4000000
0#
#4285714
0$
#4500000
1#
#5000000
0#
#5000000
1$
#5500000
1#
#5714286
0$
#6000000
0#
#6428571
1$
#6500000
1#
#7000000
0#
#7142857
0$
#7500000
1#
#7857143
1$
#8000000
0#
#8500000
1#
#8571429
0$
#9000000
0#
#9285714
1$
#9500000
1#
#10000000
0#
#10000000
0$
#10500000
1#
#10714286
1$
#11000000
0#
#11428571
0$
#11500000
1#
#12000000
0#
#12142857
1$
#12500000
1#
#12857143
0$
#13000000
0#
#13500000
1#
#13571429
1$
#14000000
0#
#14285714
0$
#14500000
1#
#15000000
0#
#15000000
1$
#15500000
1#
#15714286
0$
#16000000
0#
#16428571
1$
#16500000
1#
#17000000
0#
#17142857
0$
#17500000
1#
#17857143
1$
#18000000
0#
#18500000
1#
#18571429
0$
#19000000
0#
#19285714
1$
#19500000
1#
#20000000
0$
#20000000
0#
#20500000
1#
#20714286
1$
#21000000
0#
#21428571
0$
#21500000
1#
#22000000
0#
#22142857
1$
#22500000
1#
#22857143
0$
#23000000
0#
#23500000
1#
#23571429
1$
#24000000
0#
#24285714
0$
#24500000
1#
#25000000
1$
#25000000
0#
#25500000
1#
#25714286
0$
#26000000
0#
#26428571
1$
#26500000
1#
#27000000
0#
#27142857
0$
#27500000
1#
#27857143
1$
#28000000
0#
#28500000
1#
#28571429
0$
#29000000
0#
#29285714
1$
#29500000
1#
#30000000
0$
#30000000
0#
#30500000
1#
#30714286
1$
#31000000
0#
#31428571
0$
#31500000
1#
#32000000
0#
#32142857
1$
#32500000
1#
#32857143
0$
#33000000
0#
#33500000
1#
#33571429
1$
#34000000
0#
#34285714
0$
#34500000
1#
#35000000
1$
#35000000
0#
#35500000
1#
#35714286
0$
#36000000
0#
#36428571
1$
#36500000
1#
#37000000
0#
#37142857
0$
#37500000
1#
#37857143
1$
#38000000
0#
#38500000
1#
#38571429
0$
#39000000
0#
#39285714
1$
#39500000
1#
#40000000
0$
#40000000
0#
#40500000
1#
#40714286
1$
#41000000
0#
#41428571
0$
#41500000
1#
#42000000
0#
#42142857
1$
#42500000
1#
#42857143
0$
#43000000
0#
#43500000
1#
#43571429
1$
#44000000
0#
#44285714
0$
#44500000
1#
#45000000
0#
#45000000
1$
#45500000
1#
#45714286
0$
#46000000
0#
#46428571
1$
#46500000
1#
#47000000
0#
#47142857
0$
#47500000
1#
#47857143
1$
#48000000
0#
#48500000
1#
#48571429
0$
#49000000
0#
#49285714
1$
#49500000
1#
#50000000
0#
#50000000
0$
#50500000
1#
#50714286
1$
#51000000
0#
#51428571
0$
#51500000
1#
#52000000
0#
#52142857
1$
#52500000
1#
#52857143
0$
#53000000
0#
#53500000
1#
#53571429
1$
#54000000
0#
#54285714
0$
#54500000
1#
#55000000
0#
#55000000
1$
#55500000
1#
#55714286
0$
#56000000
0#
#56428571
1$
#56500000
1#
#57000000
0#
#57142857
0$
#57500000
1#
#57857143
1$
#58000000
0#
#58500000
1#
#58571429
0$
#59000000
0#
#59285714
1$
#59500000
1#
#60000000
0#
#60000000
0$
#60500000
1#
#60714286
1$
#61000000
0#
#61428571
0$
#61500000
1#
#62000000
0#
#62142857
1$
#62500000
1#
#62857143
0$
#63000000
0#
#63500000
1#
#63571429
1$
#64000000
0#
#64285714
0$
#64500000
1#
#65000000
0#
#65000000
1$
#65500000
1#
#65714286
0$
#66000000
0#
#66428571
1$
#66500000
1#
#67000000
0#
#67142857
0$
#67500000
1#
#67857143
1$
#68000000
0#
#68500000
1#
#68571429
0$
#69000000
0#
#69285714
1$
#69500000
1#
#70000000
0#
#70000000
0$
#70500000
1#
#70714286
1$
#71000000
0#
#71428571
0$
#71500000
1#
#72000000
0#
#72142857
1$
#72500000
1#
#72857143
0$
#73000000
0#
#73500000
1#
#73571429
1$
#74000000
0#
#74285714
0$
#74500000
1#
#75000000
0#
#75000000
1$
#75500000
1#
#75714286
0$
#76000000
0#
#76428571
1$
#76500000
1#
#77000000
0#
#77142857
0$
#77500000
1#
#77857143
1$
#78000000
0#
#78500000
1#
#78571429
0$
#79000000
0#
#79285714
1$
#79500000
1#
#80000000
0#
#80000000
0$
#80500000
1#
#80714286
1$
#81000000
0#
#81428571
0$
#81500000
1#
#82000000
0#
#82142857
1$
#82500000
1#
#82857143
0$
#83000000
0#
#83500000
1#
#83571429
1$
#84000000
0#
#84285714
0$
#84500000
1#
#85000000
0#
#85000000
1$
#85500000
1#
#85714286
0$
#86000000
0#
#86428571
1$
#86500000
1#
#87000000
0#
#87142857
0$
#87500000
1#
#87857143
1$
#88000000
0#
#88500000
1#
#88571429
0$
#89000000
0#
#89285714
1$
#89500000
1#
#90000000
0#
#90000000
0$
#90500000
1#
#90714286
1$
#91000000
0#
#91428571
0$
#91500000
1#
#92000000
0#
#92142857
1$
#92500000
1#
#92857143
0$
#93000000
0#
#93500000
1#
#93571429
1$
#94000000
0#
#94285714
0$
#94500000
1#
#95000000
0#
#95000000
1$
#95500000
1#
#95714286
0$
#96000000
0#
#96428571
1$
#96500000
1#
#97000000
0#
#97142857
0$
#97500000
1#
#97857143
1$
#98000000
0#
#98500000
1#
#98571429
0$
#99000000
0#
#99285714
1$
#99500000
1#
#100000000
0#
#100000000
0$
#100500000
1#
#100714286
1$
#101000000
0#
#101428571
0$
#101500000
1#
#102000000
0#
#102142857
1$
#102500000
1#
#102857143
0$
#103000000
0#
#103500000
1#
#103571429
1$
#104000000
0#
#104285714
0$
#104500000
1#
#105000000
0#
#105000000
1$
#105500000
1#
#105714286
0$
#106000000
0#
#106428571
1$
#106500000
1#
#107000000
0#
#107142857
0$
#107500000
1#
#107857143
1$
#108000000
0#
#108500000
1#
#108571429
0$
#109000000
0#
#109285714
1$
#109500000
1#
#110000000
0#
#110000000
0$
#110500000
1#
#110714286
1$
#111000000
0#
#111428571
0$
#111500000
1#
#112000000
0#
#112142857
1$
#112500000
1#
#112857143
0$
#113000000
0#
#113500000
1#
#113571429
1$
#114000000
0#
#114285714
0$
#114500000
1#
#115000000
0#
#115000000
1$
#115500000
1#
#115714286
0$
#116000000
0#
#116428571
1$
#116500000
1#
#117000000
0#
#117142857
0$
#117500000
1#
#117857143
1$
#118000000
0#
#118500000
1#
#118571429
0$
#119000000
0#
#119285714
1$
#119500000
1#
#120000000
0#
#120000000
0$
#120500000
1#
#120714286
1$
#121000000
0#
#121428571
0$
#121500000
1#
#122000000
0#
#122142857
1$
#122500000
1#
#122857143
0$
#123000000
0#
#123500000
1#
#123571429
1$
#124000000
0#
#124285714
0$
#124500000
1#
#125000000
0#
#125000000
1$
#125500000
1#
#125714286
0$
#126000000
0#
#126428571
1$
#126500000
1#
#127000000
0#
#127142857
0$
#127500000
1#
#127857143
1$
#128000000
0#
#128500000
1#
#128571429
0$
#129000000
0#
#129285714
1$
#129500000
1#
#130000000
0#
#130000000
0$
#130500000
1#
#130714286
1$
#131000000
0#
#131428571
0$
#131500000
1#
#132000000
0#
#132142857
1$
#132500000
1#
#132857143
0$
#133000000
0#
#133500000
1#
#133571429
1$
#134000000
0#
#134285714
0$
#134500000
1#
#135000000
0#
#135000000
1$
#135500000
1#
#135714286
0$
#136000000
0#
#136428571
1$
#136500000
1#
#137000000
0#
#137142857
0$
#137500000
1#
#137857143
1$
#138000000
0#
#138500000
1#
#138571429
0$
#139000000
0#
#139285714
1$
#139500000
1#
#140000000
0#
#140000000
0$
#140500000
1#
#140714286
1$
#141000000
0#
#141428571
0$
#141500000
1#
#142000000
0#
#142142857
1$
#142500000
1#
#142857143
0$
#143000000
0#
#143500000
1#
#143571429
1$
#144000000
0#
#144285714
0$
#144500000
1#
#145000000
0#
#145000000
1$
#145500000
1#
#145714286
0$
#146000000
0#
#146428571
1$
#146500000
1#
#147000000
0#
#147142857
0$
#147500000
1#
#147857143
1$
#148000000
0#
#148500000
1#
#148571429
0$
#149000000
0#
#149285714
1$
#149500000
1#
#150000000
0$
#150000000
0#
#150500000
1#
#150714286
1$
#151000000
0#
#151428571
0$
#151500000
1#
#152000000
0#
#152142857
1$
#152500000
1#
#152857143
0$
#153000000
0#
#153500000
1#
#153571429
1$
#154000000
0#
#154285714
0$
#154500000
1#
#155000000
1$
#155000000
0#
#155500000
1#
#155714286
0$
#156000000
0#
#156428571
1$
#156500000
1#
#157000000
0#
#157142857
0$
#157500000
1#
#157857143
1$
#158000000
0#
#158500000
1#
#158571429
0$
#159000000
0#
#159285714
1$
#159500000
1#
#160000000
0$
#160000000
0#
#160500000
1#
#160714286
1$
#161000000
0#
#161428571
0$
#161500000
1#
#162000000
0#
#162142857
1$
#162500000
1#
#162857143
0$
#163000000
0#
#163500000
1#
#163571429
1$
#164000000
0#
#164285714
0$
#164500000
1#
#165000000
1$
#165000000
0#
#165500000
1#
#165714286
0$
#166000000
0#
#166428571
1$
#166500000
1#
#167000000
0#
#167142857
0$
#167500000
1#
#167857143
1$
#168000000
0#
#168500000
1#
#168571429
0$
#169000000
0#
#169285714
1$
#169500000
1#
#170000000
0$
#170000000
0#
#170500000
1#
#170714286
1$
#171000000
0#
#171428571
0$
#171500000
1#
#172000000
0#
#172142857
1$
#172500000
1#
#172857143
0$
#173000000
0#
#173500000
1#
#173571429
1$
#174000000
0#
#174285714
0$
#174500000
1#
#175000000
1$
#175000000
0#
#175500000
1#
#175714286
0$
#176000000
0#
#176428571
1$
#176500000
1#
#177000000
0#
#177142857
0$
#177500000
1#
#177857143
1$
#178000000
0#
#178500000
1#
#178571429
0$
#179000000
0#
#179285714
1$
#179500000
1#
#180000000
0$
#180000000
0#
#180500000
1#
#180714286
1$
#181000000
0#
#181428571
0$
#181500000
1#
#182000000
0#
#182142857
1$
#182500000
1#
#182857143
0$
#183000000
0#
#183500000
1#
#183571429
1$
#184000000
0#
#184285714
0$
#184500000
1#
#185000000
1$
#185000000
0#
#185500000
1#
#185714286
0$
#186000000
0#
#186428571
1$
#186500000
1#
#187000000
0#
#187142857
0$
#187500000
1#
#187857143
1$
#188000000
0#
#188500000
1#
#188571429
0$
#189000000
0#
#189285714
1$
#189500000
1#
#190000000
0$
#190000000
0#
#190500000
1#
#190714286
1$
#191000000
0#
#191428571
0$
#191500000
1#
#192000000
0#
#192142857
1$
#192500000
1#
#192857143
0$
#193000000
0#
#193500000
1#
#193571429
1$
#194000000
0#
#194285714
0$
#194500000
1#
#195000000
1$
#195000000
0#
#195500000
1#
#195714286
0$
#196000000
0#
#196428571
1$
#196500000
1#
#197000000
0#
#197142857
0$
#197500000
1#
#197857143
1$
#198000000
0#
#198500000
1#
#198571429
0$
#199000000
0#
#199285714
1$
#199500000
1#
#200000000
0$
#200000000
0#
#200500000
1#
#200714286
1$
#201000000
0#
#201428571
0$
#201500000
1#
#202000000
0#
#202142857
1$
#202500000
1#
#202857143
0$
#203000000
0#
#203500000
1#
#203571429
1$
#204000000
0#
#204285714
0$
#204500000
1#
#205000000
1$
#205000000
0#
#205500000
1#
#205714286
0$
#206000000
0#
#206428571
1$
#206500000
1#
#207000000
0#
#207142857
0$
#207500000
1#
#207857143
1$
#208000000
0#
#208500000
1#
#208571429
0$
#209000000
0#
#209285714
1$
#209500000
1#
#210000000
0$
#210000000
0#
#210500000
1#
#210714286
1$
#211000000
0#
#211428571
0$
#211500000
1#
#212000000
0#
#212142857
1$
#212500000
1#
#212857143
0$
#213000000
0#
#213500000
1#
#213571429
1$
#214000000
0#
#214285714
0$
#214500000
1#
#215000000
1$
#215000000
0#
#215500000
1#
#215714286
0$
#216000000
0#
#216428571
1$
#216500000
1#
#217000000
0#
#217142857
0$
#217500000
1#
#217857143
1$
#218000000
0#
#218500000
1#
#218571429
0$
#219000000
0#
#219285714
1$
#219500000
1#
#220000000
0$
#220000000
0#
#220500000
1#
#220714286
1$
#221000000
0#
#221428571
0$
#221500000
1#
#222000000
0#
#222142857
1$
#222500000
1#
#222857143
0$
#223000000
0#
#223500000
1#
#223571429
1$
#224000000
0#
#224285714
0$
#224500000
1#
#225000000
1$
#225000000
0#
#225500000
1#
#225714286
0$
#226000000
0#
#226428571
1$
#226500000
1#
#227000000
0#
#227142857
0$
#227500000
1#
#227857143
1$
#228000000
0#
#228500000
1#
#228571429
0$
#229000000
0#
#229285714
1$
#229500000
1#
#230000000
0$
#230000000
0#
#230500000
1#
#230714286
1$
#231000000
0#
#231428571
0$
#231500000
1#
#232000000
0#
#232142857
1$
#232500000
1#
#232857143
0$
#233000000
0#
#233500000
1#
#233571429
1$
#234000000
0#
#234285714
0$
#234500000
1#
#235000000
1$
#235000000
0#
#235500000
1#
#235714286
0$
#236000000
0#
#236428571
1$
#236500000
1#
#237000000
0#
#237142857
0$
#237500000
1#
#237857143
1$
#238000000
0#
#238500000
1#
#238571429
0$
#239000000
0#
#239285714
1$
#239500000
1#
#240000000
0$
#240000000
0#
#240500000
1#
#240714286
1$
#241000000
0#
#241428571
0$
#241500000
1#
#242000000
0#
#242142857
1$
#242500000
1#
#242857143
0$
#243000000
0#
#243500000
1#
#243571429
1$
#244000000
0#
#244285714
0$
#244500000
1#
#245000000
1$
#245000000
0#
#245500000
1#
#245714286
0$
#246000000
0#
#246428571
1$
#246500000
1#
#247000000
0#
#247142857
0$
#247500000
1#
#247857143
1$
#248000000
0#
#248500000
1#
#248571429
0$
#249000000
0#
#249285714
1$
#249500000
1#
#250000000
0$
#250000000
0#
#250500000
1#
#250714286
1$
#251000000
0#
#251428571
0$
#251500000
1#
#252000000
0#
#252142857
1$
#252500000
1#
#252857143
0$
#253000000
0#
#253500000
1#
#253571429
1$
#254000000
0#
#254285714
0$
#254500000
1#
#255000000
1$
#255000000
0#
#255500000
1#
#255714286
0$
#256000000
0#
#256428571
1$
#256500000
1#
#257000000
0#
#257142857
0$
#257500000
1#
#257857143
1$
#258000000
0#
#258500000
1#
#258571429
0$
#259000000
0#
#259285714
1$
#259500000
1#
#260000000
0$
#260000000
0#
#260500000
1#
#260714286
1$
#261000000
0#
#261428571
0$
#261500000
1#
#262000000
0#
#262142857
1$
#262500000
1#
#262857143
0$
#263000000
0#
#263500000
1#
#263571429
1$
#264000000
0#
#264285714
0$
#264500000
1#
#265000000
1$
#265000000
0#
#265500000
1#
#265714286
0$
#266000000
0#
#266428571
1$
#266500000
1#
#267000000
0#
#267142857
0$
#267500000
1#
#267857143
1$
#268000000
0#
#268500000
1#
#268571429
0$
#269000000
0#
#269285714
1$
#269500000
1#
#270000000
0$
#270000000
0#
#270500000
1#
#270714286
1$
#271000000
0#
#271428571
0$
#271500000
1#
#272000000
0#
#272142857
1$
#272500000
1#
#272857143
0$
#273000000
0#
#273500000
1#
#273571429
1$
#274000000
0#
#274285714
0$
#274500000
1#
#275000000
1$
#275000000
0#
#275500000
1#
#275714286
0$
#276000000
0#
#276428571
1$
#276500000
1#
#277000000
0#
#277142857
0$
#277500000
1#
#277857143
1$
#278000000
0#
#278500000
1#
#278571429
0$
#279000000
0#
#279285714
1$
#279500000
1#
#280000000
0$
#280000000
0#
#280500000
1#
#280714286
1$
#281000000
0#
#281428571
0$
#281500000
1#
#282000000
0#
#282142857
1$
#282500000
1#
#282857143
0$
#283000000
0#
#283500000
1#
#283571429
1$
#284000000
0#
#284285714
0$
#284500000
1#
#285000000
1$
#285000000
0#
#285500000
1#
#285714286
0$
#286000000
0#
#286428571
1$
#286500000
1#
#287000000
0#
#287142857
0$
#287500000
1#
#287857143
1$
#288000000
0#
#288500000
1#
#288571429
0$
#289000000
0#
#289285714
1$
#289500000
1#
#290000000
0$
#290000000
0#
#290500000
1#
#290714286
1$
#291000000
0#
#291428571
0$
#291500000
1#
#292000000
0#
#292142857
1$
#292500000
1#
#292857143
0$
#293000000
0#
#293500000
1#
#293571429
1$
#294000000
0#
#294285714
0$
#294500000
1#
#295000000
1$
#295000000
0#
#295500000
1#
#295714286
0$
#296000000
0#
#296428571
1$
#296500000
1#
#297000000
0#
#297142857
0$
#297500000
1#
#297857143
1$
#298000000
0#
#298500000
1#
#298571429
0$
#299000000
0#
#299285714
1$
#299500000
1#
#300000000
0$
#300000000
0#
#300500000
1#
#300714286
1$
#301000000
0#
#301428571
0$
#301500000
1#
#302000000
0#
#302142857
1$
#302500000
1#
#302857143
0$
#303000000
0#
#303500000
1#
#303571429
1$
#304000000
0#
#304285714
0$
#304500000
1#
#305000000
1$
#305000000
0#
#305500000
1#
#305714286
0$
#306000000
0#
#306428571
1$
#306500000
1#
#307000000
0#
#307142857
0$
#307500000
1#
#307857143
1$
#308000000
0#
#308500000
1#
#308571429
0$
#309000000
0#
#309285714
1$
#309500000
1#
#310000000
0$
#310000000
0#
#310500000
1#
#310714286
1$
#311000000
0#
#311428571
0$
#311500000
1#
#312000000
0#
#312142857
1$
#312500000
1#
#312857143
0$
#313000000
0#
#313500000
1#
#313571429
1$
#314000000
0#
#314285714
0$
#314500000
1#
#315000000
1$
#315000000
0#
#315500000
1#
#315714286
0$
#316000000
0#
#316428571
1$
#316500000
1#
#317000000
0#
#317142857
0$
#317500000
1#
#317857143
1$
#318000000
0#
#318500000
1#
#318571429
0$
#319000000
0#
#319285714
1$
#319500000
1#
#320000000
0$
#320000000
0#
#320500000
1#
#320714286
1$
#321000000
0#
#321428571
0$
#321500000
1#
#322000000
0#
#322142857
1$
#322500000
1#
#322857143
0$
#323000000
0#
#323500000
1#
#323571429
1$
#324000000
0#
#324285714
0$
#324500000
1#
#325000000
1$
#325000000
0#
#325500000
1#
#325714286
0$
#326000000
0#
#326428571
1$
#326500000
1#
#327000000
0#
#327142857
0$
#327500000
1#
#327857143
1$
#328000000
0#
#328500000
1#
#328571429
0$
#329000000
0#
#329285714
1$
#329500000
1#
#330000000
0$
#330000000
0#
#330500000
1#
#330714286
1$
#331000000
0#
#331428571
0$
#331500000
1#
#332000000
0#
#332142857
1$
#332500000
1#
#332857143
0$
#333000000
0#
#333500000
1#
#333571429
1$
#334000000
0#
#334285714
0$
#334500000
1#
#335000000
1$
#335000000
0#
#335500000
1#
#335714286
0$
#336000000
0#
#336428571
1$
#336500000
1#
#337000000
0#
#337142857
0$
#337500000
1#
#337857143
1$
#338000000
0#
#338500000
1#
#338571429
0$
#339000000
0#
#339285714
1$
#339500000
1#
#340000000
0$
#340000000
0#
#340500000
1#
#340714286
1$
#341000000
0#
#341428571
0$
#341500000
1#
#342000000
0#
#342142857
1$
#342500000
1#
#342857143
0$
#343000000
0#
#343500000
1#
#343571429
1$
#344000000
0#
#344285714
0$
#344500000
1#
#345000000
1$
#345000000
0#
#345500000
1#
#345714286
0$
#346000000
0#
#346428571
1$
#346500000
1#
#347000000
0#
#347142857
0$
#347500000
1#
#347857143
1$
#348000000
0#
#348500000
1#
#348571429
0$
#349000000
0#
#349285714
1$
#349500000
1#
#350000000
0$
#350000000
0#
#350500000
1#
#350714286
1$
#351000000
0#
#351428571
0$
#351500000
1#
#352000000
0#
#352142857
1$
#352500000
1#
#352857143
0$
#353000000
0#
#353500000
1#
#353571429
1$
#354000000
0#
#354285714
0$
#354500000
1#
#355000000
1$
#355000000
0#
#355500000
1#
#355714286
0$
#356000000
0#
#356428571
1$
#356500000
1#
#357000000
0#
#357142857
0$
#357500000
1#
#357857143
1$
#358000000
0#
#358500000
1#
#358571429
0$
#359000000
0#
#359285714
1$
#359500000
1#
#360000000
0#
#360000000
0$
#360500000
1#
#360714286
1$
#361000000
0#
#361428571
0$
#361500000
1#
#362000000
0#
#362142857
1$
#362500000
1#
#362857143
0$
#363000000
0#
#363500000
1#
#363571429
1$
#364000000
0#
#364285714
0$
#364500000
1#
#365000000
0#
#365000000
1$
#365500000
1#
#365714286
0$
#366000000
0#
#366428571
1$
#366500000
1#
#367000000
0#
#367142857
0$
#367500000
1#
#367857143
1$
#368000000
0#
#368500000
1#
#368571429
0$
#369000000
0#
#369285714
1$
#369500000
1#
#370000000
0#
#370000000
0$
#370500000
1#
#370714286
1$
#371000000
0#
#371428571
0$
#371500000
1#
#372000000
0#
#372142857
1$
#372500000
1#
#372857143
0$
#373000000
0#
#373500000
1#
#373571429
1$
#374000000
0#
#374285714
0$
#374500000
1#
#375000000
0#
#375000000
1$
#375500000
1#
#375714286
0$
#376000000
0#
#376428571
1$
#376500000
1#
#377000000
0#
#377142857
0$
#377500000
1#
#377857143
1$
#378000000
0#
#378500000
1#
#378571429
0$
#379000000
0#
#379285714
1$
#379500000
1#
#380000000
0#
#380000000
0$
#380500000
1#
#380714286
1$
#381000000
0#
#381428571
0$
#381500000
1#
#382000000
0#
#382142857
1$
#382500000
1#
#382857143
0$
#383000000
0#
#383500000
1#
#383571429
1$
#384000000
0#
#384285714
0$
#384500000
1#
#385000000
0#
#385000000
1$
#385500000
1#
#385714286
0$
#386000000
0#
#386428571
1$
#386500000
1#
#387000000
0#
#387142857
0$
#387500000
1#
#387857143
1$
#388000000
0#
#388500000
1#
#388571429
0$
#389000000
0#
#389285714
1$
#389500000
1#
#390000000
0#
#390000000
0$
#390500000
1#
#390714286
1$
#391000000
0#
#391428571
0$
#391500000
1#
#392000000
0#
#392142857
1$
#392500000
1#
#392857143
0$
#393000000
0#
#393500000
1#
#393571429
1$
#394000000
0#
#394285714
0$
#394500000
1#
#395000000
0#
#395000000
1$
#395500000
1#
#395714286
0$
#396000000
0#
#396428571
1$
#396500000
1#
#397000000
0#
#397142857
0$
#397500000
1#
#397857143
1$
#398000000
0#
#398500000
1#
#398571429
0$
#399000000
0#
#399285714
1$
#399500000
1#
#400000000
0#
#400000000
0$
#400500000
1#
#400714286
1$
#401000000
0#
#401428571
0$
#401500000
1#
#402000000
0#
#402142857
1$
#402500000
1#
#402857143
0$
#403000000
0#
#403500000
1#
#403571429
1$
#404000000
0#
#404285714
0$
#404500000
1#
#405000000
0#
#405000000
1$
#405500000
1#
#405714286
0$
#406000000
0#
#406428571
1$
#406500000
1#
#407000000
0#
#407142857
0$
#407500000
1#
#407857143
1$
#408000000
0#
#408500000
1#
#408571429
0$
#409000000
0#
#409285714
1$
#409500000
1#
#410000000
0#
#410000000
0$
#410500000
1#
#410714286
1$
#411000000
0#
#411428571
0$
#411500000
1#
#412000000
0#
#412142857
1$
#412500000
1#
#412857143
0$
#413000000
0#
#413500000
1#
#413571429
1$
#414000000
0#
#414285714
0$
#414500000
1#
#415000000
0#
#415000000
1$
#415500000
1#
#415714286
0$
#416000000
0#
#416428571
1$
#416500000
1#
#417000000
0#
#417142857
0$
#417500000
1#
#417857143
1$
#418000000
0#
#418500000
1#
#418571429
0$
#419000000
0#
#419285714
1$
#419500000
1#
#420000000
0#
#420000000
0$
#420500000
1#
#420714286
1$
#421000000
0#
#421428571
0$
#421500000
1#
#422000000
0#
#422142857
1$
#422500000
1#
#422857143
0$
#423000000
0#
#423500000
1#
#423571429
1$
#424000000
0#
#424285714
0$
#424500000
1#
#425000000
0#
#425000000
1$
#425500000
1#
#425714286
0$
#426000000
0#
#426428571
1$
#426500000
1#
#427000000
0#
#427142857
0$
#427500000
1#
#427857143
1$
#428000000
0#
#428500000
1#
#428571429
0$
#429000000
0#
#429285714
1$
#429500000
1#
#430000000
0#
#430000000
0$
#430500000
1#
#430714286
1$
#431000000
0#
#431428571
0$
#431500000
1#
#432000000
0#
#432142857
1$
#432500000
1#
#432857143
0$
#433000000
0#
#433500000
1#
#433571429
1$
#434000000
0#
#434285714
0$
#434500000
1#
#435000000
0#
#435000000
1$
#435500000
1#
#435714286
0$
#436000000
0#
#436428571
1$
#436500000
1#
#437000000
0#
#437142857
0$
#437500000
1#
#437857143
1$
#438000000
0#
#438500000
1#
#438571429
0$
#439000000
0#
#439285714
1$
#439500000
1#
#440000000
0#
#440000000
0$
#440500000
1#
#440714286
1$
#441000000
0#
#441428571
0$
#441500000
1#
#442000000
0#
#442142857
1$
#442500000
1#
#442857143
0$
#443000000
0#
#443500000
1#
#443571429
1$
#444000000
0#
#444285714
0$
#444500000
1#
#445000000
0#
#445000000
1$
#445500000
1#
#445714286
0$
#446000000
0#
#446428571
1$
#446500000
1#
#447000000
0#
#447142857
0$
#447500000
1#
#447857143
1$
#448000000
0#
#448500000
1#
#448571429
0$
#449000000
0#
#449285714
1$
#449500000
1#
#450000000
0#
#450000000
0$
#450500000
1#
#450714286
1$
#451000000
0#
#451428571
0$
#451500000
1#
#452000000
0#
#452142857
1$
#452500000
1#
#452857143
0$
#453000000
0#
#453500000
1#
#453571429
1$
#454000000
0#
#454285714
0$
#454500000
1#
#455000000
0#
#455000000
1$
#455500000
1#
#455714286
0$
#456000000
0#
#456428571
1$
#456500000
1#
#457000000
0#
#457142857
0$
#457500000
1#
#457857143
1$
#458000000
0#
#458500000
1#
#458571429
0$
#459000000
0#
#459285714
1$
#459500000
1#
#460000000
0#
#460000000
0$
#460500000
1#
#460714286
1$
#461000000
0#
#461428571
0$
#461500000
1#
#462000000
0#
#462142857
1$
#462500000
1#
#462857143
0$
#463000000
0#
#463500000
1#
#463571429
1$
#464000000
0#
#464285714
0$
#464500000
1#
#465000000
0#
#465000000
1$
#465500000
1#
#465714286
0$
#466000000
0#
#466428571
1$
#466500000
1#
#467000000
0#
#467142857
0$
#467500000
1#
#467857143
1$
#468000000
0#
#468500000
1#
#468571429
0$
#469000000
0#
#469285714
1$
#469500000
1#
#470000000
0#
#470000000
0$
#470500000
1#
#470714286
1$
#471000000
0#
#471428571
0$
#471500000
1#
#472000000
0#
#472142857
1$
#472500000
1#
#472857143
0$
#473000000
0#
#473500000
1#
#473571429
1$
#474000000
0#
#474285714
0$
#474500000
1#
#475000000
0#
#475000000
1$
#475500000
1#
#475714286
0$
#476000000
0#
#476428571
1$
#476500000
1#
#477000000
0#
#477142857
0$
#477500000
1#
#477857143
1$
#478000000
0#
#478500000
1#
#478571429
0$
#479000000
0#
#479285714
1$
#479500000
1#
#480000000
0#
#480000000
0$
#480500000
1#
#480714286
1$
#481000000
0#
#481428571
0$
#481500000
1#
#482000000
0#
#482142857
1$
#482500000
1#
#482857143
0$
#483000000
0#
#483500000
1#
#483571429
1$
#484000000
0#
#484285714
0$
#484500000
1#
#485000000
0#
#485000000
1$
#485500000
1#
#485714286
0$
#486000000
0#
#486428571
1$
#486500000
1#
#487000000
0#
#487142857
0$
#487500000
1#
#487857143
1$
#488000000
0#
#488500000
1#
#488571429
0$
#489000000
0#
#489285714
1$
#489500000
1#
#490000000
0#
#490000000
0$
#490500000
1#
#490714286
1$
#491000000
0#
#491428571
0$
#491500000
1#
#492000000
0#
#492142857
1$
#492500000
1#
#492857143
0$
#493000000
0#
#493500000
1#
#493571429
1$
#494000000
0#
#494285714
0$
#494500000
1#
#495000000
0#
#495000000
1$
#495500000
1#
#495714286
0$
#496000000
0#
#496428571
1$
#496500000
1#
#497000000
0#
#497142857
0$
#497500000
1#
#497857143
1$
#498000000
0#
#498500000
1#
#498571429
0$
#499000000
0#
#499285714
1$
#499500000
1#
#500000000
0#
#500000000
0$
#500500000
1#
#500714286
1$
#501000000
0#
#501428571
0$
#501500000
1#
#502000000
0#
#502142857
1$
#502500000
1#
#502857143
0$
#503000000
0#
#503500000
1#
#503571429
1$
#504000000
0#
#504285714
0$
#504500000
1#
#505000000
0#
#505000000
1$
#505500000
1#
#505714286
0$
#506000000
0#
#506428571
1$
#506500000
1#
#507000000
0#
#507142857
0$
#507500000
1#
#507857143
1$
#508000000
0#
#508500000
1#
#508571429
0$
#509000000
0#
#509285714
1$
#509500000
1#
#510000000
0#
#510000000
0$
#510500000
1#
#510714286
1$
#511000000
0#
#511428571
0$
#511500000
1#
#512000000
0#
#512142857
1$
#512500000
1#
#512857143
0$
#513000000
0#
#513500000
1#
#513571429
1$
#514000000
0#
#514285714
0$
#514500000
1#
#515000000
0#
#515000000
1$
#515500000
1#
#515714286
0$
#516000000
0#
#516428571
1$
#516500000
1#
#517000000
0#
#517142857
0$
#517500000
1#
#517857143
1$
#518000000
0#
#518500000
1#
#518571429
0$
#519000000
0#
#519285714
1$
#519500000
1#
#520000000
0#
#520000000
0$
#520500000
1#
#520714286
1$
#521000000
0#
#521428571
0$
#521500000
1#
#522000000
0#
#522142857
1$
#522500000
1#
#522857143
0$
#523000000
0#
#523500000
1#
#523571429
1$
#524000000
0#
#524285714
0$
#524500000
1#
#525000000
0#
#525000000
1$
#525500000
1#
#525714286
0$
#526000000
0#
#526428571
1$
#526500000
1#
#527000000
0#
#527142857
0$
#527500000
1#
#527857143
1$
#528000000
0#
#528500000
1#
#528571429
0$
#529000000
0#
#529285714
1$
#529500000
1#
#530000000
0#
#530000000
0$
#530500000
1#
#530714286
1$
#531000000
0#
#531428571
0$
#531500000
1#
#532000000
0#
#532142857
1$
#532500000
1#
#532857143
0$
#533000000
0#
#533500000
1#
#533571429
1$
#534000000
0#
#534285714
0$
#534500000
1#
#535000000
0#
#535000000
1$
#535500000
1#
#535714286
0$
#536000000
0#
#536428571
1$
#536500000
1#
#537000000
0#
#537142857
0$
#537500000
1#
#537857143
1$
#538000000
0#
#538500000
1#
#538571429
0$
#539000000
0#
#539285714
1$
#539500000
1#
#540000000
0#
#540000000
0$
#540500000
1#
#540714286
1$
#541000000
0#
#541428571
0$
#541500000
1#
